<?xml version="1.0" encoding="UTF-8" standalone="no"?>
<!-- Created with Inkscape (http://www.inkscape.org/) -->

<svg
   xmlns:osb="http://www.openswatchbook.org/uri/2009/osb"
   xmlns:dc="http://purl.org/dc/elements/1.1/"
   xmlns:cc="http://creativecommons.org/ns#"
   xmlns:rdf="http://www.w3.org/1999/02/22-rdf-syntax-ns#"
   xmlns:svg="http://www.w3.org/2000/svg"
   xmlns="http://www.w3.org/2000/svg"
   xmlns:xlink="http://www.w3.org/1999/xlink"
   xmlns:sodipodi="http://sodipodi.sourceforge.net/DTD/sodipodi-0.dtd"
   xmlns:inkscape="http://www.inkscape.org/namespaces/inkscape"
   width="1587.4016"
   height="2245.0393"
   id="svg3419"
   version="1.1"
   inkscape:version="0.92.1 r"
   sodipodi:docname="poster.svg"
   inkscape:export-filename="/home/igor/school/camp/camp17/adv/poster.png"
   inkscape:export-xdpi="90.011787"
   inkscape:export-ydpi="90.011787">
  <defs
     id="defs3421">
    <marker
       inkscape:stockid="DotL"
       orient="auto"
       refY="0.0"
       refX="0.0"
       id="DotL"
       style="overflow:visible"
       inkscape:isstock="true">
      <path
         id="path6494"
         d="M -2.5,-1.0 C -2.5,1.7600000 -4.7400000,4.0 -7.5,4.0 C -10.260000,4.0 -12.5,1.7600000 -12.5,-1.0 C -12.5,-3.7600000 -10.260000,-6.0 -7.5,-6.0 C -4.7400000,-6.0 -2.5,-3.7600000 -2.5,-1.0 z "
         style="fill-rule:evenodd;stroke:#000000;stroke-width:1pt;stroke-opacity:1;fill:#000000;fill-opacity:1"
         transform="scale(0.8) translate(7.4, 1)" />
    </marker>
    <marker
       inkscape:stockid="Arrow1Lend"
       orient="auto"
       refY="0.0"
       refX="0.0"
       id="Arrow1Lend"
       style="overflow:visible;"
       inkscape:isstock="true">
      <path
         id="path6436"
         d="M 0.0,0.0 L 5.0,-5.0 L -12.5,0.0 L 5.0,5.0 L 0.0,0.0 z "
         style="fill-rule:evenodd;stroke:#000000;stroke-width:1pt;stroke-opacity:1;fill:#000000;fill-opacity:1"
         transform="scale(0.8) rotate(180) translate(12.5,0)" />
    </marker>
    <marker
       inkscape:stockid="Arrow1Lstart"
       orient="auto"
       refY="0.0"
       refX="0.0"
       id="Arrow1Lstart"
       style="overflow:visible"
       inkscape:isstock="true">
      <path
         id="path6433"
         d="M 0.0,0.0 L 5.0,-5.0 L -12.5,0.0 L 5.0,5.0 L 0.0,0.0 z "
         style="fill-rule:evenodd;stroke:#000000;stroke-width:1pt;stroke-opacity:1;fill:#000000;fill-opacity:1"
         transform="scale(0.8) translate(12.5,0)" />
    </marker>
    <inkscape:perspective
       sodipodi:type="inkscape:persp3d"
       inkscape:vp_x="0 : 1122.5197 : 1"
       inkscape:vp_y="0 : 1066.6667 : 0"
       inkscape:vp_z="1587.4016 : 1122.5197 : 1"
       inkscape:persp3d-origin="793.70078 : 748.34644 : 1"
       id="perspective4120" />
    <linearGradient
       id="linearGradient3782"
       osb:paint="solid">
      <stop
         style="stop-color:#ffffff;stop-opacity:1;"
         offset="0"
         id="stop3784" />
    </linearGradient>
    <linearGradient
       inkscape:collect="always"
       xlink:href="#linearGradient3782"
       id="linearGradient3786"
       x1="176.55072"
       y1="500.16226"
       x2="452.63248"
       y2="500.16226"
       gradientUnits="userSpaceOnUse" />
  </defs>
  <sodipodi:namedview
     id="base"
     pagecolor="#ffffff"
     bordercolor="#000000"
     borderopacity="1"
     inkscape:pageopacity="0.0"
     inkscape:pageshadow="2"
     inkscape:zoom="0.77636718"
     inkscape:cx="884.3205"
     inkscape:cy="494.90333"
     inkscape:document-units="px"
     inkscape:current-layer="layer1"
     showgrid="false"
     inkscape:showpageshadow="false"
     units="px"
     inkscape:window-width="1918"
     inkscape:window-height="1062"
     inkscape:window-x="0"
     inkscape:window-y="16"
     inkscape:window-maximized="0"
     showguides="true"
     inkscape:guide-bbox="true">
    <inkscape:grid
       type="xygrid"
       id="grid3427"
       empspacing="5"
       visible="true"
       enabled="true"
       snapvisiblegridlinesonly="true"
       originx="0"
       originy="0"
       spacingx="1.0666667"
       spacingy="1.0666667" />
  </sodipodi:namedview>
  <metadata
     id="metadata3424">
    <rdf:RDF>
      <cc:Work
         rdf:about="">
        <dc:format>image/svg+xml</dc:format>
        <dc:type
           rdf:resource="http://purl.org/dc/dcmitype/StillImage" />
        <dc:title />
      </cc:Work>
    </rdf:RDF>
  </metadata>
  <g
     inkscape:groupmode="layer"
     id="layer2"
     inkscape:label="background"
     transform="translate(0,1451.3386)"
     style="display:inline"
     sodipodi:insensitive="true">
    <rect
       style="fill:#ffffff;fill-opacity:1;fill-rule:nonzero;stroke:#ffffff;stroke-width:2.13333344;stroke-miterlimit:4;stroke-dasharray:none;stroke-dashoffset:0;stroke-opacity:1"
       id="rect3979"
       width="1585.2682"
       height="2242.906"
       x="1.0666667"
       y="-1450.2719"
       inkscape:export-xdpi="90.011787"
       inkscape:export-ydpi="90.011787" />
  </g>
  <g
     inkscape:label="Layer 1"
     inkscape:groupmode="layer"
     id="layer1"
     transform="translate(0,1122.5197)">
    <path
       style="fill:#000000;fill-opacity:1;stroke:#000000;stroke-width:3.18820596px;stroke-linecap:butt;stroke-linejoin:miter;stroke-opacity:1"
       d="M 370.52802,-811.95891 1000.2629,369.76844 437.53559,669.64222 587.47246,951.00584 1431.5634,501.19524 651.89172,-961.8958 Z"
       id="path3429"
       inkscape:connector-curvature="0" />
    <path
       style="fill:none;stroke:#000000;stroke-width:3.20000005;stroke-linecap:butt;stroke-linejoin:miter;stroke-miterlimit:4;stroke-dasharray:none;stroke-opacity:1"
       d="m 1407.8365,-434.22797 h 73.0934 v -171.2055"
       id="path4047"
       inkscape:connector-curvature="0" />
    <text
       xml:space="preserve"
       style="font-style:normal;font-variant:normal;font-weight:normal;font-stretch:normal;font-size:12.80000019px;line-height:0%;font-family:'Hagin Caps Medium';-inkscape-font-specification:'Hagin Caps Medium';letter-spacing:0px;word-spacing:0px;fill:#ce1832;fill-opacity:1;stroke:none;stroke-width:1.06666672"
       x="621.87067"
       y="-598.09473"
       id="text2998"><tspan
         sodipodi:role="line"
         id="tspan3000"
         x="621.87067"
         y="-598.09473"
         style="font-size:313.88739014px;line-height:1.25;font-family:'Hagin Caps Medium';-inkscape-font-specification:'Hagin Caps Medium';fill:#ce1832;fill-opacity:1;stroke:none;stroke-width:1.06666672">Летняя</tspan></text>
    <text
       xml:space="preserve"
       style="font-style:normal;font-variant:normal;font-weight:normal;font-stretch:normal;font-size:14.79112816px;line-height:0%;font-family:'Alte Haas Grotesk';-inkscape-font-specification:'Alte Haas Grotesk';text-align:start;letter-spacing:0px;word-spacing:0px;text-anchor:start;fill:#000000;fill-opacity:1;stroke:none;stroke-width:1.23259401"
       x="206.07552"
       y="1168.8926"
       id="text3981-0-0"
       transform="rotate(-28.025254)"><tspan
         sodipodi:role="line"
         x="206.07552"
         y="1168.8926"
         style="font-style:normal;font-variant:normal;font-weight:bold;font-stretch:normal;font-size:49.30376053px;line-height:1.25;font-family:'Alte Haas Grotesk';-inkscape-font-specification:'Alte Haas Grotesk';text-align:start;text-anchor:start;stroke-width:1.23259401"
         id="tspan4011-6">http:   physsummer.wordpress.com</tspan><tspan
         sodipodi:role="line"
         x="206.07552"
         y="1230.5223"
         style="font-style:normal;font-variant:normal;font-weight:bold;font-stretch:normal;font-size:49.30376053px;line-height:1.25;font-family:'Alte Haas Grotesk';-inkscape-font-specification:'Alte Haas Grotesk';text-align:start;text-anchor:start;stroke-width:1.23259401"
         id="tspan3985-7-9"> </tspan></text>
    <text
       xml:space="preserve"
       style="font-style:normal;font-variant:normal;font-weight:bold;font-stretch:normal;font-size:12.80000019px;line-height:0%;font-family:'Hagin Caps Medium';-inkscape-font-specification:'Hagin Caps Medium';letter-spacing:0px;word-spacing:0px;fill:#ffffff;fill-opacity:1;stroke:none;stroke-width:1.06666672"
       x="211.30103"
       y="1021.9742"
       id="text4042"
       transform="rotate(-28.095775)"><tspan
         sodipodi:role="line"
         id="tspan4044"
         x="211.30103"
         y="1021.9742"
         style="font-size:181.33332825px;line-height:1.25;stroke-width:1.06666672">ШКОЛА</tspan></text>
    <text
       xml:space="preserve"
       style="font-style:normal;font-variant:normal;font-weight:bold;font-stretch:normal;font-size:12.80000019px;line-height:0%;font-family:'Hagin Caps Medium';-inkscape-font-specification:'Hagin Caps Medium';letter-spacing:0px;word-spacing:0px;fill:#ffffff;fill-opacity:1;stroke:none;stroke-width:1.06666672"
       x="-106.0133"
       y="-808.77881"
       id="text4042-5"
       transform="rotate(61.904225)"><tspan
         sodipodi:role="line"
         id="tspan4044-2"
         x="-106.0133"
         y="-808.77881"
         style="font-size:181.33332825px;line-height:1.25;stroke-width:1.06666672">ФИЗИЧЕСКАЯ</tspan></text>
    <g
       id="g4414"
       transform="rotate(60.42005,1865.2658,1557.4375)">
      <rect
         y="361.82401"
         x="117.58813"
         height="94.015549"
         width="30.870775"
         id="rect4253"
         style="fill:none;stroke:#000000;stroke-width:1.91999996;stroke-miterlimit:4;stroke-dasharray:none;stroke-dashoffset:0;stroke-opacity:1" />
      <path
         inkscape:connector-curvature="0"
         id="path4255"
         d="m 131.2,360.91968 v -44.8 h 68.26667"
         style="fill:none;stroke:#000000;stroke-width:1.91999996;stroke-linecap:butt;stroke-linejoin:miter;stroke-miterlimit:4;stroke-dasharray:none;stroke-opacity:1" />
      <g
         id="g4315">
        <path
           style="fill:none;stroke:#000000;stroke-width:1.91999996;stroke-linecap:butt;stroke-linejoin:miter;stroke-miterlimit:4;stroke-dasharray:none;stroke-opacity:1"
           d="m 199.46667,284.11968 v 61.86667"
           id="path4257"
           inkscape:connector-curvature="0" />
        <path
           style="fill:none;stroke:#000000;stroke-width:1.91999996;stroke-linecap:butt;stroke-linejoin:miter;stroke-miterlimit:4;stroke-dasharray:none;stroke-opacity:1"
           d="M 216.53333,284.11964 V 345.9863"
           id="path4257-4"
           inkscape:connector-curvature="0" />
      </g>
      <path
         inkscape:connector-curvature="0"
         id="path4255-2"
         d="m 285.86667,359.85297 v -44.8 H 217.6"
         style="fill:none;stroke:#000000;stroke-width:1.91999996;stroke-linecap:butt;stroke-linejoin:miter;stroke-miterlimit:4;stroke-dasharray:none;stroke-opacity:1" />
      <path
         inkscape:connector-curvature="0"
         id="path4255-0"
         d="m 131.71508,456.66078 v 44.97195 h 56.37066"
         style="fill:none;stroke:#000000;stroke-width:1.91999996;stroke-linecap:butt;stroke-linejoin:miter;stroke-miterlimit:4;stroke-dasharray:none;stroke-opacity:1" />
      <ellipse
         id="path4313"
         style="fill:none;stroke:#000000;stroke-width:1.68271148;stroke-miterlimit:4;stroke-dasharray:none;stroke-dashoffset:0;stroke-opacity:1"
         cx="208"
         cy="500.6445"
         rx="20.491978"
         ry="21.483524" />
      <path
         style="fill:none;stroke:#000000;stroke-width:1.91999996;stroke-linecap:butt;stroke-linejoin:miter;stroke-miterlimit:4;stroke-dasharray:none;stroke-opacity:1"
         d="m 284.08574,456.66078 v 44.97195 h -56.37066"
         id="path4319"
         inkscape:connector-curvature="0" />
      <path
         sodipodi:nodetypes="cccc"
         inkscape:connector-curvature="0"
         id="path4323"
         d="m 194.03302,501.58738 9.80521,-8.67392 8.29672,15.46208 9.83202,-9.67573"
         style="fill:none;stroke:#000000;stroke-width:1.91999996;stroke-linecap:butt;stroke-linejoin:miter;stroke-miterlimit:4;stroke-dasharray:none;stroke-opacity:1" />
      <path
         inkscape:connector-curvature="0"
         id="path4358"
         d="m 285.08307,358.71379 12.97437,6.80497 -22.13275,13.39713 10.30318,5.10369"
         style="fill:none;stroke:#000000;stroke-width:1.91999996;stroke-linecap:butt;stroke-linejoin:miter;stroke-miterlimit:4;stroke-dasharray:none;stroke-opacity:1" />
      <path
         inkscape:connector-curvature="0"
         id="path4358-2"
         d="m 286.21514,383.96418 12.97436,6.80494 -22.13274,13.39714 10.30318,5.10372"
         style="fill:none;stroke:#000000;stroke-width:1.91999996;stroke-linecap:butt;stroke-linejoin:miter;stroke-miterlimit:4;stroke-dasharray:none;stroke-opacity:1" />
      <path
         inkscape:connector-curvature="0"
         id="path4358-2-5"
         d="m 286.21514,408.66959 12.97436,6.80493 -22.13274,13.39715 10.30318,5.10372"
         style="fill:none;stroke:#000000;stroke-width:1.91999996;stroke-linecap:butt;stroke-linejoin:miter;stroke-miterlimit:4;stroke-dasharray:none;stroke-opacity:1" />
      <path
         inkscape:connector-curvature="0"
         id="path4358-2-5-9"
         d="m 283.95798,432.23785 12.97437,6.80492 -22.13274,13.39716 10.30317,5.10372"
         style="fill:none;stroke:#000000;stroke-width:1.91999996;stroke-linecap:butt;stroke-linejoin:miter;stroke-miterlimit:4;stroke-dasharray:none;stroke-opacity:1" />
    </g>
    <text
       xml:space="preserve"
       style="font-style:normal;font-variant:normal;font-weight:500;font-stretch:normal;font-size:12.80000019px;line-height:0%;font-family:'Nissan AG';-inkscape-font-specification:'Nissan AG Medium';text-align:start;letter-spacing:0px;word-spacing:0px;writing-mode:lr-tb;text-anchor:start;fill:#ce1832;fill-opacity:1;stroke:none;stroke-width:1.06666672"
       x="164.07497"
       y="449.37299"
       id="text4430"><tspan
         sodipodi:role="line"
         x="164.07497"
         y="449.37299"
         style="font-style:normal;font-variant:normal;font-weight:500;font-stretch:normal;font-size:53.33333206px;line-height:125%;font-family:'Nissan AG';-inkscape-font-specification:'Nissan AG Medium';text-align:start;writing-mode:lr-tb;text-anchor:start;stroke-width:1.06666672"
         id="tspan3112">(необходима</tspan><tspan
         sodipodi:role="line"
         x="164.07497"
         y="516.03967"
         style="font-style:normal;font-variant:normal;font-weight:500;font-stretch:normal;font-size:53.33333206px;line-height:125%;font-family:'Nissan AG';-inkscape-font-specification:'Nissan AG Medium';text-align:start;writing-mode:lr-tb;text-anchor:start;stroke-width:1.06666672"
         id="tspan5616">предварительная</tspan><tspan
         sodipodi:role="line"
         x="164.07497"
         y="582.7063"
         style="font-style:normal;font-variant:normal;font-weight:500;font-stretch:normal;font-size:53.33333206px;line-height:125%;font-family:'Nissan AG';-inkscape-font-specification:'Nissan AG Medium';text-align:start;writing-mode:lr-tb;text-anchor:start;stroke-width:1.06666672"
         id="tspan5618">регистрация)</tspan></text>
    <text
       xml:space="preserve"
       style="font-style:normal;font-variant:normal;font-weight:500;font-stretch:normal;font-size:12.80000019px;line-height:0%;font-family:'Nissan AG';-inkscape-font-specification:'Nissan AG Medium';text-align:start;letter-spacing:0px;word-spacing:0px;writing-mode:lr-tb;text-anchor:start;fill:#000000;fill-opacity:1;stroke:none;stroke-width:1.06666672"
       x="163.37331"
       y="316.56848"
       id="text4440"><tspan
         sodipodi:role="line"
         id="tspan4442"
         x="163.37331"
         y="316.56848"
         style="font-style:normal;font-variant:normal;font-weight:500;font-stretch:normal;font-size:53.33333206px;line-height:125%;font-family:'Nissan AG';-inkscape-font-specification:'Nissan AG Medium';text-align:start;writing-mode:lr-tb;text-anchor:start;stroke-width:1.06666672">Зачисление по результатам</tspan><tspan
         sodipodi:role="line"
         x="163.37331"
         y="383.23514"
         id="tspan4444"
         style="font-style:normal;font-variant:normal;font-weight:500;font-stretch:normal;font-size:53.33333206px;line-height:125%;font-family:'Nissan AG';-inkscape-font-specification:'Nissan AG Medium';text-align:start;writing-mode:lr-tb;text-anchor:start;stroke-width:1.06666672">вступительной работы</tspan></text>
    <text
       xml:space="preserve"
       style="font-style:normal;font-variant:normal;font-weight:500;font-stretch:normal;font-size:12.80000019px;line-height:0%;font-family:'Nissan AG';-inkscape-font-specification:'Nissan AG Medium';text-align:end;letter-spacing:0px;word-spacing:0px;writing-mode:lr-tb;text-anchor:end;fill:#ce1832;fill-opacity:1;stroke:none;stroke-width:1.06666672"
       x="1503.5947"
       y="1020.6299"
       id="text4493"><tspan
         sodipodi:role="line"
         x="1503.5946"
         y="1020.6299"
         id="tspan4497"
         style="font-style:normal;font-variant:normal;font-weight:500;font-stretch:normal;font-size:41.33333588px;line-height:125%;font-family:'Nissan AG';-inkscape-font-specification:'Nissan AG Medium';text-align:end;writing-mode:lr-tb;text-anchor:end;fill:#000000;stroke-width:1.06666672">Обладатели дипломов городской или региональной олимпиады,</tspan><tspan
         sodipodi:role="line"
         x="1503.5947"
         y="1072.2965"
         id="tspan4499"
         style="font-style:normal;font-variant:normal;font-weight:500;font-stretch:normal;font-size:41.33333588px;line-height:125%;font-family:'Nissan AG';-inkscape-font-specification:'Nissan AG Medium';text-align:end;writing-mode:lr-tb;text-anchor:end;fill:#ce1832;fill-opacity:1;stroke-width:1.06666672"><tspan
   style="font-size:41.33333588px;fill:#000000"
   id="tspan6427">а также олимпиады Максвелла</tspan> от вступительной работы освобождены</tspan></text>
    <path
       style="fill:none;stroke:#000000;stroke-width:4;stroke-linecap:butt;stroke-linejoin:miter;stroke-miterlimit:4;stroke-dasharray:none;stroke-opacity:1"
       d="m 847.05562,791.34531 v 88.53334"
       id="path4505"
       inkscape:connector-curvature="0" />
    <path
       inkscape:connector-curvature="0"
       id="path4507"
       d="m 832.12229,799.87865 v 88.53333"
       style="fill:none;stroke:#000000;stroke-width:4;stroke-linecap:butt;stroke-linejoin:miter;stroke-miterlimit:4;stroke-dasharray:none;stroke-opacity:1" />
    <text
       style="font-size:2.21422935px;line-height:0%;fill:none;stroke:#000000;stroke-width:0.00032412;stroke-miterlimit:4;stroke-dasharray:none;stroke-opacity:1"
       x="961.0603"
       y="-259.83557"
       class="fil1 fnt0"
       id="text4917">V</text>
    <text
       style="font-size:2.21422935px;line-height:0%;fill:none;stroke:#000000;stroke-width:0.00032412;stroke-miterlimit:4;stroke-dasharray:none;stroke-opacity:1"
       x="977.66699"
       y="-254.29999"
       class="fil1 fnt1"
       id="text4919">in</text>
    <circle
       style="fill:#000000;fill-opacity:1;stroke:#000000;stroke-width:3.24122095;stroke-miterlimit:4;stroke-dasharray:none;stroke-opacity:1"
       class="fil1"
       cx="1164.4004"
       cy="-319.43521"
       r="3.6903822"
       id="circle4921" />
    <polyline
       transform="matrix(0.18451911,0,0,0.18451911,950.54273,-458.00908)"
       style="fill:none;stroke:#000000;stroke-width:17.56577301;stroke-miterlimit:4;stroke-dasharray:none;stroke-opacity:1"
       class="fil2 str0"
       points="303,1041 459,1041 485,987 537,1096 588,987 640,1096 692,987 744,1096 770,1041 926,1041 1003,1041 "
       id="polyline4923" />
    <text
       style="font-size:2.21422935px;line-height:0%;fill:none;stroke:#000000;stroke-width:0.00032412;stroke-miterlimit:4;stroke-dasharray:none;stroke-opacity:1"
       x="1049.4451"
       y="-288.436"
       class="fil1 fnt0"
       id="text4925">R</text>
    <text
       style="font-size:2.21422935px;line-height:0%;fill:none;stroke:#000000;stroke-width:0.00032412;stroke-miterlimit:4;stroke-dasharray:none;stroke-opacity:1"
       x="1066.4208"
       y="-282.90045"
       class="fil1 fnt1"
       id="text4927">B</text>
    <circle
       style="fill:none;stroke:#000000;stroke-width:3.24122095;stroke-miterlimit:4;stroke-dasharray:none;stroke-opacity:1"
       class="fil2 str0"
       cx="1150.0078"
       cy="-265.92468"
       r="28.784983"
       id="circle4929" />
    <line
       style="fill:none;stroke:#000000;stroke-width:0.00032412;stroke-miterlimit:4;stroke-dasharray:none;stroke-opacity:1"
       class="fil2 str0"
       x1="1135.6155"
       y1="-280.3172"
       x2="1135.6155"
       y2="-251.53221"
       id="line4931" />
    <polygon
       transform="matrix(0.18451911,0,0,0.18451911,950.54273,-458.00908)"
       style="fill:#000000;fill-opacity:1;stroke:#000000;stroke-width:17.56577301;stroke-miterlimit:4;stroke-dasharray:none;stroke-opacity:1"
       class="fil1"
       points="1135,1162 1070,1097 1047,1139 "
       id="polygon4933" />
    <circle
       style="fill:none;stroke:#000000;stroke-width:3.24122095;stroke-miterlimit:4;stroke-dasharray:none;stroke-opacity:1"
       class="fil0 str0"
       cx="1003.2108"
       cy="-265.92468"
       r="3.6903822"
       id="circle4935" />
    <polyline
       transform="matrix(0.18226686,0,0,0.18451911,953.30025,-458.00908)"
       style="fill:none;stroke:#000000;stroke-width:17.67396927;stroke-miterlimit:4;stroke-dasharray:none;stroke-opacity:1"
       class="fil2 str0"
       points="1003,1086 1159,1176 1159,1487 1213,1513 1105,1565 1213,1617 1105,1669 1213,1721 1105,1772 1159,1798 1159,1954 2481,1954 "
       id="polyline4937" />
    <text
       style="font-size:2.21422935px;line-height:0%;fill:none;stroke:#000000;stroke-width:0.00032412;stroke-miterlimit:4;stroke-dasharray:none;stroke-opacity:1"
       x="1182.1144"
       y="-148.75507"
       class="fil1 fnt0"
       id="text4939">R</text>
    <text
       style="font-size:2.21422935px;line-height:0%;fill:none;stroke:#000000;stroke-width:0.00032412;stroke-miterlimit:4;stroke-dasharray:none;stroke-opacity:1"
       x="1198.9054"
       y="-143.21942"
       class="fil1 fnt1"
       id="text4941">E</text>
    <text
       style="font-size:2.21422935px;line-height:0%;fill:none;stroke:#000000;stroke-width:0.00032412;stroke-miterlimit:4;stroke-dasharray:none;stroke-opacity:1"
       x="1296.8851"
       y="-148.75507"
       class="fil1 fnt0"
       id="text4943">R</text>
    <text
       style="font-size:2.21422935px;line-height:0%;fill:none;stroke:#000000;stroke-width:0.00032412;stroke-miterlimit:4;stroke-dasharray:none;stroke-opacity:1"
       x="1313.6764"
       y="-143.21942"
       class="fil1 fnt1"
       id="text4945">2</text>
    <polyline
       transform="matrix(0.18451911,0,0,0.18451911,950.54273,-458.00908)"
       style="fill:none;stroke:#000000;stroke-width:17.56577301;stroke-miterlimit:4;stroke-dasharray:none;stroke-opacity:1"
       class="fil2 str0"
       points="1003,996 1159,907 1159,595 1105,569 1213,518 1105,466 1213,414 1105,362 1213,310 1159,284 1159,129 2481,129 "
       id="polyline4947" />
    <text
       style="font-size:2.21422935px;line-height:0%;fill:none;stroke:#000000;stroke-width:0.00032412;stroke-miterlimit:4;stroke-dasharray:none;stroke-opacity:1"
       x="1182.1144"
       y="-370.73151"
       class="fil1 fnt0"
       id="text4949">R</text>
    <text
       style="font-size:2.21422935px;line-height:0%;fill:none;stroke:#000000;stroke-width:0.00032412;stroke-miterlimit:4;stroke-dasharray:none;stroke-opacity:1"
       x="1198.9054"
       y="-365.19598"
       class="fil1 fnt1"
       id="text4951">C1</text>
    <polyline
       transform="matrix(0.18451911,0,0,0.18451911,950.54273,-458.00908)"
       style="fill:none;stroke:#000000;stroke-width:17.56577301;stroke-miterlimit:4;stroke-dasharray:none;stroke-opacity:1"
       class="fil2 str0"
       points="1781,1041 1937,1041 2015,1041 "
       id="polyline4961" />
    <circle
       style="fill:none;stroke:#000000;stroke-width:3.24122095;stroke-miterlimit:4;stroke-dasharray:none;stroke-opacity:1"
       class="fil2 str0"
       cx="1336.5566"
       cy="-265.92468"
       r="28.784983"
       id="circle4963" />
    <line
       style="fill:none;stroke:#000000;stroke-width:0.00032412;stroke-miterlimit:4;stroke-dasharray:none;stroke-opacity:1"
       class="fil2 str0"
       x1="1322.3488"
       y1="-280.3172"
       x2="1322.3488"
       y2="-251.53221"
       id="line4965" />
    <polyline
       transform="matrix(0.18451911,0,0,0.18451911,950.54273,-458.00908)"
       style="fill:none;stroke:#000000;stroke-width:17.56577301;stroke-miterlimit:4;stroke-dasharray:none;stroke-opacity:1"
       class="fil2 str0"
       points="2015,1086 2170,1176 2170,1332 1159,1332 "
       id="polyline4967" />
    <polygon
       transform="matrix(0.18451911,0,0,0.18451911,950.54273,-458.00908)"
       style="fill:#000000;fill-opacity:1;stroke:#000000;stroke-width:17.56577301;stroke-miterlimit:4;stroke-dasharray:none;stroke-opacity:1"
       class="fil1"
       points="2146,1162 2082,1097 2058,1139 "
       id="polygon4969" />
    <polyline
       transform="matrix(0.18451911,0,0,0.18451911,950.54273,-458.00908)"
       style="fill:none;stroke:#000000;stroke-width:17.56577301;stroke-miterlimit:4;stroke-dasharray:none;stroke-opacity:1"
       class="fil2 str0"
       points="2015,996 2170,907 2170,595 2116,569 2225,518 2116,466 2225,414 2116,362 2225,310 2170,284 2170,129 "
       id="polyline4971" />
    <text
       style="font-size:2.21422935px;line-height:0%;fill:none;stroke:#000000;stroke-width:0.00032412;stroke-miterlimit:4;stroke-dasharray:none;stroke-opacity:1"
       x="1368.663"
       y="-370.73151"
       class="fil1 fnt0"
       id="text4973">R</text>
    <text
       style="font-size:2.21422935px;line-height:0%;fill:none;stroke:#000000;stroke-width:0.00032412;stroke-miterlimit:4;stroke-dasharray:none;stroke-opacity:1"
       x="1385.4542"
       y="-365.19598"
       class="fil1 fnt1"
       id="text4975">C2</text>
    <polyline
       transform="matrix(0.18451911,0,0,0.18451911,950.54273,-458.00908)"
       style="fill:none;stroke:#000000;stroke-width:17.56577301;stroke-miterlimit:4;stroke-dasharray:none;stroke-opacity:1"
       class="fil2 str0"
       points="1781,1954 1781,1798 1727,1772 1836,1721 1727,1669 1836,1617 1727,1565 1836,1513 1781,1487 1781,751 1626,751 1600,805 1548,696 1496,805 1444,696 1392,805 1340,696 1315,751 1159,751 "
       id="polyline4977" />
    <text
       style="font-size:2.21422935px;line-height:0%;fill:none;stroke:#000000;stroke-width:0.00032412;stroke-miterlimit:4;stroke-dasharray:none;stroke-opacity:1"
       x="1210.8992"
       y="-284.56113"
       class="fil1 fnt0"
       id="text4979">R</text>
    <text
       style="font-size:2.21422935px;line-height:0%;fill:none;stroke:#000000;stroke-width:0.00032412;stroke-miterlimit:4;stroke-dasharray:none;stroke-opacity:1"
       x="1227.875"
       y="-279.21005"
       class="fil1 fnt1"
       id="text4981">1</text>
    <text
       style="font-size:2.21422935px;line-height:0%;fill:none;stroke:#000000;stroke-width:0.00032412;stroke-miterlimit:4;stroke-dasharray:none;stroke-opacity:1"
       x="1419.0367"
       y="-425.34918"
       class="fil1 fnt0"
       id="text4985">V</text>
    <text
       style="font-size:2.21422935px;line-height:0%;fill:none;stroke:#000000;stroke-width:0.00032412;stroke-miterlimit:4;stroke-dasharray:none;stroke-opacity:1"
       x="1435.6436"
       y="-419.99811"
       class="fil1 fnt1"
       id="text4987">+</text>
    <text
       style="font-size:2.21422935px;line-height:0%;fill:none;stroke:#000000;stroke-width:0.00032412;stroke-miterlimit:4;stroke-dasharray:none;stroke-opacity:1"
       x="1419.0367"
       y="-310.57834"
       class="fil1 fnt0"
       id="text4993">V</text>
    <text
       style="font-size:2.21422935px;line-height:0%;fill:none;stroke:#000000;stroke-width:0.00032412;stroke-miterlimit:4;stroke-dasharray:none;stroke-opacity:1"
       x="1435.6436"
       y="-305.04279"
       class="fil1 fnt1"
       id="text4995">out</text>
    <circle
       style="fill:#000000;fill-opacity:1;stroke:#000000;stroke-width:3.24122095;stroke-miterlimit:4;stroke-dasharray:none;stroke-opacity:1"
       class="fil1"
       cx="1164.4004"
       cy="-212.22961"
       r="3.6903822"
       id="circle4997" />
    <circle
       style="fill:#000000;fill-opacity:1;stroke:#000000;stroke-width:3.24122095;stroke-miterlimit:4;stroke-dasharray:none;stroke-opacity:1"
       class="fil1"
       cx="1279.1713"
       cy="-265.92468"
       r="3.6903822"
       id="circle4999" />
    <text
       style="font-size:2.21422935px;line-height:0%;fill:none;stroke:#000000;stroke-width:0.00032412;stroke-miterlimit:4;stroke-dasharray:none;stroke-opacity:1"
       x="1104.4316"
       y="-301.53687"
       class="fil1 fnt2"
       id="text5001">Q1</text>
    <text
       style="font-size:2.21422935px;line-height:0%;fill:none;stroke:#000000;stroke-width:0.00032412;stroke-miterlimit:4;stroke-dasharray:none;stroke-opacity:1"
       x="1377.3353"
       y="-258.35944"
       class="fil1 fnt2"
       id="text5003">Q2</text>
    <circle
       style="fill:#000000;fill-opacity:1;stroke:#000000;stroke-width:3.24122095;stroke-miterlimit:4;stroke-dasharray:none;stroke-opacity:1"
       class="fil1"
       cx="1350.9492"
       cy="-434.20612"
       r="3.6903822"
       id="circle5005" />
    <circle
       style="fill:#000000;fill-opacity:1;stroke:#000000;stroke-width:3.24122095;stroke-miterlimit:4;stroke-dasharray:none;stroke-opacity:1"
       class="fil1"
       cx="1279.1713"
       cy="-97.458725"
       r="3.6903822"
       id="circle5007" />
    <path
       style="fill:none;stroke:#000000;stroke-width:2.16533327;stroke-linecap:butt;stroke-linejoin:miter;stroke-miterlimit:4;stroke-dasharray:none;stroke-opacity:1"
       d="m 1135.7439,-275.53382 v 19.13902"
       id="path5217"
       inkscape:connector-curvature="0" />
    <path
       inkscape:connector-curvature="0"
       id="path5237"
       d="m 1322.6235,-275.53382 v 19.13902"
       style="fill:none;stroke:#000000;stroke-width:2.16533327;stroke-linecap:butt;stroke-linejoin:miter;stroke-miterlimit:4;stroke-dasharray:none;stroke-opacity:1" />
    <text
       xml:space="preserve"
       style="font-style:normal;font-variant:normal;font-weight:500;font-stretch:normal;font-size:12.80000019px;line-height:0%;font-family:'Nissan AG';-inkscape-font-specification:'Nissan AG Medium';text-align:end;letter-spacing:0px;word-spacing:0px;writing-mode:lr-tb;text-anchor:end;fill:#000000;fill-opacity:1;stroke:none;stroke-width:1.06666672"
       x="1509.3024"
       y="-952.7074"
       id="text3951"><tspan
         sodipodi:role="line"
         x="1509.3024"
         y="-952.7074"
         id="tspan3957"
         style="font-style:normal;font-variant:normal;font-weight:500;font-stretch:normal;font-size:50.03452682px;line-height:125%;font-family:'Nissan AG';-inkscape-font-specification:'Nissan AG Medium';text-align:end;writing-mode:lr-tb;text-anchor:end;stroke-width:1.06666672">ДОЛ «Пионер», пос. Лемболово</tspan></text>
    <path
       style="fill:none;stroke:#000000;stroke-width:10.66666794;stroke-linecap:butt;stroke-linejoin:miter;stroke-miterlimit:4;stroke-dasharray:none;stroke-opacity:1"
       d="M 367.95274,-813.58726 969.59976,-1128.6813"
       id="path3961"
       inkscape:connector-curvature="0" />
    <text
       xml:space="preserve"
       style="font-style:normal;font-variant:normal;font-weight:500;font-stretch:normal;font-size:12.40984726px;line-height:0%;font-family:'Nissan AG';-inkscape-font-specification:'Nissan AG Medium';text-align:start;letter-spacing:0px;word-spacing:0px;writing-mode:lr-tb;text-anchor:start;fill:#ce1832;fill-opacity:1;stroke:none;stroke-width:1.03415406"
       x="165.24831"
       y="35.38707"
       id="text3963"><tspan
         sodipodi:role="line"
         id="tspan3965"
         x="165.24831"
         y="35.38707"
         style="font-style:normal;font-variant:normal;font-weight:500;font-stretch:normal;font-size:51.70769882px;line-height:125%;font-family:'Nissan AG';-inkscape-font-specification:'Nissan AG Medium';text-align:start;writing-mode:lr-tb;text-anchor:start;fill:#000000;fill-opacity:1;stroke-width:1.03415406">            бъявляет набор</tspan><tspan
         sodipodi:role="line"
         x="165.24831"
         y="100.02169"
         id="tspan3971"
         style="font-style:normal;font-variant:normal;font-weight:500;font-stretch:normal;font-size:51.70769882px;line-height:125%;font-family:'Nissan AG';-inkscape-font-specification:'Nissan AG Medium';text-align:start;writing-mode:lr-tb;text-anchor:start;fill:#ce1832;fill-opacity:1;stroke-width:1.03415406"><tspan
           style="font-style:normal;font-variant:normal;font-weight:500;font-stretch:normal;font-size:51.70769882px;line-height:125%;font-family:'Nissan AG';-inkscape-font-specification:'Nissan AG Medium';text-align:start;writing-mode:lr-tb;text-anchor:start;fill:#000000;stroke-width:1.03415406"
           id="tspan3989">школьников</tspan><tspan
           style="font-style:normal;font-variant:normal;font-weight:500;font-stretch:normal;font-size:51.70769882px;line-height:125%;font-family:'Nissan AG';-inkscape-font-specification:'Nissan AG Medium';text-align:start;writing-mode:lr-tb;text-anchor:start;stroke-width:1.03415406"
           id="tspan3110"> 7–10 классов</tspan></tspan></text>
    <text
       xml:space="preserve"
       style="font-style:normal;font-variant:normal;font-weight:normal;font-stretch:normal;font-size:12.80000019px;line-height:0%;font-family:RodchenkoCondC;-inkscape-font-specification:RodchenkoCondC;letter-spacing:0px;word-spacing:0px;fill:#000000;fill-opacity:1;stroke:none;stroke-width:1.06666672"
       x="156.77397"
       y="27.5149"
       id="text3975"><tspan
         sodipodi:role="line"
         id="tspan3977"
         x="156.77397"
         y="27.5149"
         style="font-size:85.33333588px;line-height:1.25;stroke-width:1.06666672"> </tspan></text>
    <text
       xml:space="preserve"
       style="font-style:normal;font-variant:normal;font-weight:500;font-stretch:normal;font-size:12.80000019px;line-height:0%;font-family:'Nissan AG';-inkscape-font-specification:'Nissan AG Medium';text-align:start;letter-spacing:0px;word-spacing:0px;writing-mode:lr-tb;text-anchor:start;fill:#000000;fill-opacity:1;stroke:none;stroke-width:1.06666672"
       x="890.74243"
       y="-1006.3384"
       id="text3991"><tspan
         sodipodi:role="line"
         id="tspan3993"
         x="890.74243"
         y="-1006.3384"
         style="font-style:normal;font-variant:normal;font-weight:500;font-stretch:normal;font-size:50.03452682px;line-height:125%;font-family:'Nissan AG';-inkscape-font-specification:'Nissan AG Medium';text-align:start;writing-mode:lr-tb;text-anchor:start;stroke-width:1.06666672">16 июля — 6 августа 2017</tspan></text>
    <path
       style="fill:none;stroke:#000000;stroke-width:3.20000005;stroke-linecap:butt;stroke-linejoin:miter;stroke-miterlimit:4;stroke-dasharray:none;stroke-opacity:1"
       d="M 1404.2798,-97.915462 V 488.21188"
       id="path4045"
       inkscape:connector-curvature="0" />
    <image
       y="754.27429"
       x="1348.0546"
       id="image4300"
       xlink:href="data:image/png;base64,iVBORw0KGgoAAAANSUhEUgAAAPgAAAD4CAYAAADB0SsLAAAABHNCSVQICAgIfAhkiAAABUlJREFU eJzt3UuOHTkSAMGpQd//ytUnELggooPpMltLlfk+Di7ikfnz+/v7+z8g6f/bNwDMETiECRzCBA5h AocwgUOYwCHsn9M/+Pn5+S/uY832zwBu39/b+z9d//T3p+9/+/5ed3r9VnAIEziECRzCBA5hAocw gUOYwCHsOAc/2Z4jn2zPQbfnxLe25/TTXr+/2/ffCg5hAocwgUOYwCFM4BAmcAgTOIRdz8FPpue0 23PM6f3Kt3//1vbvCLZ9/ftrBYcwgUOYwCFM4BAmcAgTOIQJHMLG5+Bf9/q53Ntz8pPX76/OCg5h AocwgUOYwCFM4BAmcAgTOISZgx9sPx/7ZHo/+facevv6X2cFhzCBQ5jAIUzgECZwCBM4hAkcwsbn 4F+fY74+595+f7effz79+rff31tWcAgTOIQJHMIEDmEChzCBQ5jAIex6Dv63Pz/69Tnu9Lnu2+fC 33r9/m5ZwSFM4BAmcAgTOIQJHMIEDmECh7Cf369veB32+n7n7Tk7b7OCQ5jAIUzgECZwCBM4hAkc wgQOYddz8O1zw0/+9jnx65/PtNd/xzDNCg5hAocwgUOYwCFM4BAmcAgTOIQdz0WfnvNt74fePhd7 +v27tf35f9306zu9/1ZwCBM4hAkcwgQOYQKHMIFDmMAh7Pr54Lde3w8+/f9f3698e3+v70ff/nxO bq9vBYcwgUOYwCFM4BAmcAgTOIQJHMLW5+Db+2W3Tc+hX98Pf2v7+7N9/RMrOIQJHMIEDmEChzCB Q5jAIUzgEDY+B9+eE97uh/76fuvbOer0///6HH77uQAnVnAIEziECRzCBA5hAocwgUOYwCFsfA6+ fa7163PKuu05/+vfj+n7t4JDmMAhTOAQJnAIEziECRzCBA5h13Pw1+eM2+eK385BT7afX71te85+ +/enWcEhTOAQJnAIEziECRzCBA5hAoew6zn49pxwe7/26/vdX5+Tvz6H337/bq9vBYcwgUOYwCFM 4BAmcAgTOIQJHMKe3w9+a3uOfDK9X/z2+tv73W9tz7FPpr9fVnAIEziECRzCBA5hAocwgUOYwCHs OAffnmPe+vp+6e1ztad9/fVtPx/8xAoOYQKHMIFDmMAhTOAQJnAIEziEHefg23PK2znh9H7w7f3m 2/vZp88DeP13Bq//TsQKDmEChzCBQ5jAIUzgECZwCBM4hI3vB59+/vfJ9pxye05+sj2H337909/v 7ddnBYcwgUOYwCFM4BAmcAgTOIQJHMLG94Nvz0m/fv/T6vvVT7avP/07DSs4hAkcwgQOYQKHMIFD mMAhTOAQtv588Pq52a+b3q8//Xzsr3/+078zsIJDmMAhTOAQJnAIEziECRzCBA5hzz8ffNr0nPb2 +ifT+9G3z5W/tf36ts8LsIJDmMAhTOAQJnAIEziECRzCBA5hxzn4yetz0u05/uvX/9vPfd++/vSc 3goOYQKHMIFDmMAhTOAQJnAIEziEXc/BT6bnoK/POU+m56Cvz6Gnz2WfNn2u/+33wwoOYQKHMIFD mMAhTOAQJnAIEziEjc/B67bn2Lfnup9Mz2m335/X5/D2gwN/JHAIEziECRzCBA5hAocwgUOYOfjB 63POW68/P/tk+/2bnuPbDw78kcAhTOAQJnAIEziECRzCBA5h43Pw7TnltO3nP0/PkevPF9/ejz7d hxUcwgQOYQKHMIFDmMAhTOAQJnAIu56Dbz+fedr2udpf/x3B9n7y6c/v9ddnBYcwgUOYwCFM4BAm cAgTOIQJHMJ+fr8+aAX+yAoOYQKHMIFDmMAhTOAQJnAIEziE/Qtk9yg0xPdiMAAAAABJRU5ErkJg gg== "
       height="153.56746"
       width="153.56746" />
    <path
       style="fill:none;stroke:#000000;stroke-width:5.33333349;stroke-linecap:butt;stroke-linejoin:miter;stroke-miterlimit:4;stroke-dasharray:none;stroke-opacity:1"
       d="M 248.54037,-117.62401 V -1123.6765"
       id="path4303"
       inkscape:connector-curvature="0"
       inkscape:transform-center-y="505.69294" />
    <text
       xml:space="preserve"
       style="font-style:normal;font-variant:normal;font-weight:normal;font-stretch:normal;font-size:12.80000019px;line-height:0%;font-family:HelveticaNeueCyr;-inkscape-font-specification:HelveticaNeueCyr;letter-spacing:0px;word-spacing:0px;fill:#000000;fill-opacity:1;stroke:none;stroke-width:1.06666672"
       x="158.71602"
       y="36.570534"
       id="text5597"
       inkscape:transform-center-y="1080.7094"><tspan
         sodipodi:role="line"
         id="tspan5599"
         x="158.71602"
         y="36.570534"
         style="font-style:normal;font-variant:normal;font-weight:900;font-stretch:normal;font-size:230.91093445px;line-height:1.25;font-family:Helvetica-8-Heavy;-inkscape-font-specification:'Helvetica-8-Heavy Heavy';stroke-width:1.06666672">О</tspan></text>
    <path
       style="fill:none;fill-rule:evenodd;stroke:#000000;stroke-width:2;stroke-linecap:butt;stroke-linejoin:miter;stroke-miterlimit:4;stroke-dasharray:none;stroke-opacity:1;marker-start:url(#DotL);marker-end:url(#Arrow1Lend)"
       d="m -580.92508,620.01518 c 66.37543,218.52175 153.29603,435.79102 384.07683,359.61419 27.46286,-9.39744 86.06674,-32.92935 86.06674,-32.92935"
       id="path6431"
       inkscape:connector-curvature="0"
       sodipodi:nodetypes="ccc" />
  </g>
</svg>
