U;dU;R;dR;I;dI;Y;dY;empty;eds;deds
1.434;0.014;4.40;0.11;1.818181818;6.580991736;0.69735007;0.006973501;;1.442;0.014
1.422;0.014;11.20;0.24;1.785714286;2.596045918;0.70323488;0.007032349;;;
1.415;0.014;16.2;0.3;1.666666667;1.798971193;0.706713781;0.007067138;;Все напряжения -- в вольтах.;
1.407;0.014;23.4;0.7;1.495726496;1.260219885;0.710732054;0.007107321;;Все сопротивления -- в килоомах.;
1.402;0.014;26.3;0.7;1.520912548;1.123352947;0.713266762;0.007132668;;Исходные данные -- первые четыре столбца и ЭДС сверху.;
1.393;0.014;32.7;0.9;1.498470948;0.906106856;0.71787509;0.007178751;;Ток -- в микроамперах;
1.389;0.014;42.0;1.0;1.261904762;0.705294785;0.719942405;0.007199424;;Y -- обратное напряжение в обратных вольтах;
1.370;0.014;49.4;1.2;1.457489879;0.604281336;0.729927007;0.00729927;;;
1.360;0.014;58.0;1.4;1.413793103;0.516254459;0.735294118;0.007352941;;;
1.354;0.014;62.2;1.4;1.414790997;0.482362672;0.738552437;0.007385524;;;
